"Surname","GivenName"
Boecker,Olaf
Foerster,Stefan
Hellmich,Stefan
Hener,Christof
Hobler,Philipp
Metzler,Joern
Schneider,Bjoern
Schneider,Gerhard
Wahl,Thorsten
Einsele,Andreas
El-Maghraby,Andreas
Kuhle,Daniel
Poor,Laszlo
Schubert,Juergen
Thieme,Roland